<svg width="11" height="11" viewBox="0 0 11 11" fill="none" xmlns="http://www.w3.org/2000/svg">
<path id="Vector" d="M2.16339 0.100644C2.22785 0.0362017 2.31527 0 2.40642 0C2.49756 0 2.58498 0.0362017 2.64944 0.100644L3.7817 1.23294L1.23325 3.78147L0.100986 2.64986C0.0689745 2.61793 0.0435772 2.58 0.0262489 2.53824C0.00892067 2.49648 0 2.4517 0 2.40649C0 2.36128 0.00892067 2.31651 0.0262489 2.27474C0.0435772 2.23298 0.0689745 2.19505 0.100986 2.16312L2.16339 0.100644ZM1.71929 4.26753L4.26774 1.719L8.73629 6.18769H8.59399C8.50282 6.18769 8.41539 6.22391 8.35093 6.28837C8.28647 6.35284 8.25025 6.44027 8.25025 6.53144V6.87519H7.90652C7.81535 6.87519 7.72792 6.9114 7.66346 6.97587C7.599 7.04033 7.56278 7.12776 7.56278 7.21893V7.56268H7.21905C7.12788 7.56268 7.04045 7.59889 6.97599 7.66336C6.91153 7.72782 6.87531 7.81526 6.87531 7.90642V8.25017H6.53158C6.44041 8.25017 6.35298 8.28638 6.28852 8.35085C6.22406 8.41531 6.18784 8.50275 6.18784 8.59391V8.73622L1.71929 4.26753ZM6.85331 9.40172C6.86778 9.36325 6.87523 9.3225 6.87531 9.28141V8.93766H7.21905C7.31021 8.93766 7.39764 8.90144 7.46211 8.83698C7.52657 8.77251 7.56278 8.68508 7.56278 8.59391V8.25017H7.90652C7.99768 8.25017 8.08511 8.21395 8.14958 8.14949C8.21404 8.08502 8.25025 7.99759 8.25025 7.90642V7.56268H8.59399C8.68515 7.56268 8.77258 7.52646 8.83705 7.462C8.90151 7.39753 8.93772 7.3101 8.93772 7.21893V6.87519H9.28146C9.32255 6.87512 9.3633 6.86767 9.40177 6.85319L9.52482 6.97556C9.55758 7.00855 9.58331 7.04784 9.60044 7.09106L10.9754 10.5285C11.0004 10.591 11.0065 10.6594 10.993 10.7253C10.9795 10.7912 10.9469 10.8517 10.8993 10.8993C10.8517 10.9469 10.7913 10.9795 10.7253 10.993C10.6594 11.0065 10.591 11.0004 10.5285 10.9754L7.09118 9.6004C7.04796 9.58326 7.00867 9.55754 6.97568 9.52478L6.85331 9.40172Z" fill="#F4545A"/>
</svg>
